patient_id,CRIS-nearest,CRIS,CMS-RF-nearest,CMS-RF
GSM2772122,CRIS-D,CRIS-D,CMS4,NOLBL
GSM2772123,CRIS-E,CRIS-E,CMS2,NOLBL
GSM2772124,CRIS-D,CRIS-D,CMS3,NOLBL
GSM2772125,CRIS-D,CRIS-D,CMS4,CMS4
GSM2772126,CRIS-E,CRIS-E,CMS2,CMS2
GSM2772127,CRIS-D,CRIS-D,CMS4,CMS4
GSM2772128,CRIS-B,CRIS-B,CMS1,NOLBL
GSM2772129,CRIS-A,Unknown,CMS3,CMS3
GSM2772130,CRIS-A,CRIS-A,CMS3,CMS3
GSM2772131,CRIS-C,Unknown,CMS2,CMS2
GSM2772132,CRIS-A,CRIS-A,CMS1,CMS1
GSM2772133,CRIS-C,Unknown,CMS3,CMS3
GSM2772134,CRIS-C,CRIS-C,CMS2,CMS2
GSM2772135,CRIS-C,CRIS-C,CMS2,CMS2
GSM2772136,CRIS-C,CRIS-C,CMS2,CMS2
GSM2772137,CRIS-E,CRIS-E,CMS2,CMS2
GSM2772138,CRIS-E,CRIS-E,CMS2,CMS2
GSM2772139,CRIS-C,CRIS-C,CMS2,CMS2
GSM2772140,CRIS-C,CRIS-C,CMS3,CMS3
GSM2772141,CRIS-C,Unknown,CMS2,CMS2
GSM2772142,CRIS-D,CRIS-D,"CMS1,CMS2",NOLBL
GSM2772143,CRIS-A,CRIS-A,"CMS1,CMS3",NOLBL
GSM2772144,CRIS-E,CRIS-E,CMS3,NOLBL
GSM2772145,CRIS-B,CRIS-B,CMS1,CMS1
GSM2772146,CRIS-C,CRIS-C,CMS2,CMS2
GSM2772147,CRIS-C,CRIS-C,CMS2,CMS2
GSM2772148,CRIS-D,CRIS-D,CMS4,CMS4
GSM2772149,CRIS-C,CRIS-C,CMS4,NOLBL
GSM2772150,CRIS-C,CRIS-C,CMS1,NOLBL
GSM2772151,CRIS-B,CRIS-B,CMS1,CMS1
GSM2772152,CRIS-B,CRIS-B,CMS2,CMS2
GSM2772153,CRIS-C,CRIS-C,CMS4,CMS4
GSM2772154,CRIS-C,CRIS-C,CMS4,CMS4
GSM2772155,CRIS-C,CRIS-C,CMS2,NOLBL
GSM2772156,CRIS-D,CRIS-D,CMS1,NOLBL
GSM2772157,CRIS-B,CRIS-B,CMS1,CMS1
GSM2772158,CRIS-A,CRIS-A,CMS3,CMS3
GSM2772159,CRIS-D,CRIS-D,CMS4,NOLBL
GSM2772160,CRIS-E,CRIS-E,CMS4,NOLBL
GSM2772161,CRIS-D,CRIS-D,CMS2,CMS2
GSM2772162,CRIS-B,CRIS-B,CMS4,CMS4
GSM2772163,CRIS-E,CRIS-E,CMS2,CMS2
GSM2772164,CRIS-B,CRIS-B,CMS4,NOLBL
GSM2772165,CRIS-B,CRIS-B,CMS4,CMS4
GSM2772166,CRIS-B,CRIS-B,CMS1,NOLBL
GSM2772167,CRIS-E,Unknown,CMS2,CMS2
GSM2772168,CRIS-C,CRIS-C,CMS2,CMS2
GSM2772169,CRIS-C,CRIS-C,CMS2,CMS2
GSM2772170,CRIS-D,CRIS-D,CMS4,CMS4
GSM2772171,CRIS-B,CRIS-B,CMS4,NOLBL
GSM2772172,CRIS-A,CRIS-A,CMS1,CMS1
GSM2772173,CRIS-A,CRIS-A,CMS2,CMS2
GSM2772174,CRIS-E,CRIS-E,CMS2,CMS2
GSM2772175,CRIS-E,Unknown,CMS2,NOLBL
GSM2772176,CRIS-C,CRIS-C,CMS2,NOLBL
GSM2772177,CRIS-D,CRIS-D,CMS2,CMS2
GSM2772178,CRIS-A,CRIS-A,CMS3,CMS3
GSM2772179,CRIS-E,CRIS-E,CMS4,CMS4
GSM2772180,CRIS-E,CRIS-E,CMS2,CMS2
GSM2772181,CRIS-C,CRIS-C,CMS2,CMS2
GSM2772182,CRIS-C,CRIS-C,CMS4,NOLBL
GSM2772183,CRIS-D,CRIS-D,CMS4,CMS4
GSM2772184,CRIS-A,CRIS-A,CMS1,CMS1
GSM2772185,CRIS-D,CRIS-D,CMS2,NOLBL
GSM2772186,CRIS-C,CRIS-C,CMS2,NOLBL
GSM2772187,CRIS-C,CRIS-C,CMS4,NOLBL
GSM2772188,CRIS-E,CRIS-E,CMS2,CMS2
GSM2772189,CRIS-C,CRIS-C,CMS4,CMS4
GSM2772190,CRIS-A,CRIS-A,CMS1,NOLBL
GSM2772191,CRIS-A,CRIS-A,CMS1,CMS1
GSM2772192,CRIS-C,CRIS-C,CMS2,NOLBL
GSM2772193,CRIS-E,CRIS-E,CMS2,CMS2
GSM2772194,CRIS-C,CRIS-C,CMS2,CMS2
GSM2772195,CRIS-A,CRIS-A,CMS3,CMS3
GSM2772196,CRIS-C,CRIS-C,CMS2,CMS2
GSM2772197,CRIS-C,CRIS-C,CMS2,NOLBL
GSM2772198,CRIS-A,CRIS-A,CMS1,NOLBL
GSM2772199,CRIS-E,CRIS-E,CMS1,NOLBL
GSM2772200,CRIS-B,CRIS-B,CMS4,CMS4
GSM2772201,CRIS-A,CRIS-A,CMS4,CMS4
GSM2772202,CRIS-A,CRIS-A,CMS3,NOLBL
GSM2772203,CRIS-A,CRIS-A,CMS1,NOLBL
GSM2772204,CRIS-A,CRIS-A,CMS3,NOLBL
GSM2772205,CRIS-C,CRIS-C,CMS2,CMS2
GSM2772206,CRIS-D,CRIS-D,CMS2,CMS2
GSM2772207,CRIS-E,CRIS-E,CMS2,CMS2
GSM2772208,CRIS-A,CRIS-A,CMS3,CMS3
GSM2772209,CRIS-C,Unknown,CMS3,NOLBL
GSM2772210,CRIS-C,CRIS-C,CMS4,CMS4
GSM2772211,CRIS-A,CRIS-A,CMS2,CMS2
GSM2772212,CRIS-D,CRIS-D,CMS2,CMS2
GSM2772213,CRIS-A,CRIS-A,CMS3,CMS3
GSM2772214,CRIS-A,CRIS-A,CMS3,CMS3
GSM2772215,CRIS-C,CRIS-C,CMS4,NOLBL
GSM2772216,CRIS-D,CRIS-D,CMS4,CMS4
GSM2772217,CRIS-A,CRIS-A,CMS1,CMS1
GSM2772218,CRIS-A,CRIS-A,CMS4,NOLBL
GSM2772219,CRIS-D,CRIS-D,CMS2,CMS2
GSM2772220,CRIS-E,CRIS-E,CMS2,CMS2
GSM2772221,CRIS-E,CRIS-E,CMS2,CMS2
GSM2772222,CRIS-B,CRIS-B,CMS1,CMS1
GSM2772223,CRIS-A,CRIS-A,CMS3,CMS3
GSM2772224,CRIS-C,CRIS-C,"CMS2,CMS3",NOLBL
GSM2772225,CRIS-B,CRIS-B,CMS1,CMS1
GSM2772226,CRIS-A,CRIS-A,CMS3,CMS3
GSM2772227,CRIS-C,CRIS-C,CMS2,CMS2
GSM2772228,CRIS-A,CRIS-A,CMS3,CMS3
GSM2772229,CRIS-A,CRIS-A,CMS2,NOLBL
GSM2772230,CRIS-B,CRIS-B,CMS1,NOLBL
GSM2772231,CRIS-A,CRIS-A,CMS1,CMS1
GSM2772232,CRIS-A,CRIS-A,CMS3,CMS3
GSM2772233,CRIS-B,CRIS-B,CMS1,NOLBL
GSM2772234,CRIS-C,CRIS-C,CMS3,NOLBL
GSM2772235,CRIS-A,CRIS-A,CMS3,CMS3
GSM2772236,CRIS-D,CRIS-D,CMS4,CMS4
GSM2772237,CRIS-A,CRIS-A,CMS3,CMS3
GSM2772238,CRIS-A,CRIS-A,CMS2,CMS2
GSM2772239,CRIS-C,CRIS-C,CMS2,NOLBL
GSM2772240,CRIS-C,CRIS-C,CMS2,CMS2
GSM2772241,CRIS-E,CRIS-E,CMS2,CMS2
GSM2772242,CRIS-B,CRIS-B,CMS4,CMS4
GSM2772243,CRIS-E,CRIS-E,CMS2,CMS2
GSM2772244,CRIS-E,CRIS-E,CMS3,NOLBL
GSM2772245,CRIS-A,CRIS-A,CMS4,CMS4
GSM2772246,CRIS-C,CRIS-C,CMS2,CMS2
GSM2772247,CRIS-C,CRIS-C,CMS2,CMS2
GSM2772248,CRIS-A,CRIS-A,CMS3,CMS3
GSM2772249,CRIS-C,Unknown,CMS2,CMS2
GSM2772250,CRIS-E,CRIS-E,CMS2,CMS2
GSM2772251,CRIS-C,CRIS-C,CMS2,CMS2
GSM2772252,CRIS-B,CRIS-B,CMS3,NOLBL
GSM2772253,CRIS-D,Unknown,CMS1,NOLBL
GSM2772254,CRIS-C,CRIS-C,CMS2,CMS2
GSM2772255,CRIS-A,CRIS-A,CMS1,NOLBL
GSM2772256,CRIS-A,CRIS-A,CMS3,CMS3
GSM2772257,CRIS-B,CRIS-B,CMS1,CMS1
GSM2772258,CRIS-C,CRIS-C,CMS2,CMS2
GSM2772259,CRIS-A,CRIS-A,CMS3,CMS3
GSM2772260,CRIS-D,CRIS-D,CMS2,CMS2
GSM2772261,CRIS-A,Unknown,CMS1,CMS1
GSM2772262,CRIS-B,Unknown,CMS3,CMS3
GSM2772263,CRIS-D,CRIS-D,CMS1,NOLBL
GSM2772264,CRIS-B,CRIS-B,CMS4,NOLBL
GSM2772265,CRIS-B,CRIS-B,CMS1,CMS1
GSM2772266,CRIS-B,CRIS-B,CMS1,CMS1
GSM2772267,CRIS-E,CRIS-E,CMS4,CMS4
GSM2772268,CRIS-B,CRIS-B,CMS1,NOLBL
GSM2772269,CRIS-D,CRIS-D,CMS2,CMS2
GSM2772270,CRIS-D,Unknown,CMS1,NOLBL
GSM2772271,CRIS-C,CRIS-C,CMS4,NOLBL
GSM2772272,CRIS-A,CRIS-A,CMS2,CMS2
GSM2772273,CRIS-B,Unknown,CMS1,NOLBL
GSM2772274,CRIS-D,CRIS-D,CMS4,CMS4
GSM2772275,CRIS-D,Unknown,CMS4,CMS4
GSM2772276,CRIS-C,CRIS-C,CMS2,NOLBL
GSM2772277,CRIS-E,CRIS-E,CMS2,CMS2
